digraph G {
node [style=filled fillcolor=yellow];
nullraiz [shape=point];
nullraiz->"6XP1"[label=0];
"6XP1"->"6X2E"[label=0];
"6XP1"->"6X9V"[label=0];
"6X2E"->"6X94"[label=1];
"6X2E"->"6XP0"[label=0];
"6X94"i[shape=point];
"6X94"->"6X94"i;
"6X94"->"6X88"[label=0];
"6X88"i[shape=point];
"6X88"->"6X88"i;
"6X88"d [shape=point];
"6X88"->"6X88"d;
"6XP0"i[shape=point];
"6XP0"->"6XP0"i;
"6XP0"d [shape=point];
"6XP0"->"6XP0"d;
"6X9V"->"6W9L"[label=0];
"6X9V"->"6WYC"[label=0];
"6W9L"->"6W9K"[label=0];
"6W9L"->"6X9R"[label=0];
"6W9K"i[shape=point];
"6W9K"->"6W9K"i;
"6W9K"d [shape=point];
"6W9K"->"6W9K"d;
"6X9R"->"6W9M"[label=1];
"6X9R"->"6WU9"[label=0];
"6W9M"i[shape=point];
"6W9M"->"6W9M"i;
"6W9M"->"6XP7"[label=0];
"6XP7"i[shape=point];
"6XP7"->"6XP7"i;
"6XP7"d [shape=point];
"6XP7"->"6XP7"d;
"6WU9"->"6X9S"[label=0];
"6WU9"->"6X9U"[label=0];
"6X9S"i[shape=point];
"6X9S"->"6X9S"i;
"6X9S"d [shape=point];
"6X9S"->"6X9S"d;
"6X9U"i[shape=point];
"6X9U"->"6X9U"i;
"6X9U"d [shape=point];
"6X9U"->"6X9U"d;
"6WYC"->"6WES"[label=0];
"6WYC"->"6XOZ"[label=0];
"6WES"->"6WIM"[label=0];
"6WES"->"6WPJ"[label=0];
"6WIM"->"6WIL"[label=0];
"6WIM"->"6WUB"[label=0];
"6WIL"i[shape=point];
"6WIL"->"6WIL"i;
"6WIL"d [shape=point];
"6WIL"->"6WIL"d;
"6WUB"i[shape=point];
"6WUB"->"6WUB"i;
"6WUB"d [shape=point];
"6WUB"->"6WUB"d;
"6WPJ"i[shape=point];
"6WPJ"->"6WPJ"i;
"6WPJ"d [shape=point];
"6WPJ"->"6WPJ"d;
"6XOZ"i[shape=point];
"6XOZ"->"6XOZ"i;
"6XOZ"d [shape=point];
"6XOZ"->"6XOZ"d;
}
